{ 
    "href" : "https://api.spotify.com/v1/users/22io3oxgaphrgsxto4naqh4ai/playlists?offset=5&limit=10",
    "items" : [ {
      "collaborative" : false,
      "description" : "Kings of Leon, Palace, Taylor Swift and more",
      "external_urls" : {
        "spotify" : "https://open.spotify.com/playlist/37i9dQZF1E38ykNZX6MuFG"
      },
      "href" : "https://api.spotify.com/v1/playlists/37i9dQZF1E38ykNZX6MuFG",
      "id" : "37i9dQZF1E38ykNZX6MuFG",
      "images" : [ {
        "height" : null,
        "url" : "https://dailymix-images.scdn.co/v2/img/ab6761610000e5eb8fbd402cfd8cc6ce926a2229/2/en/large",
        "width" : null
      } ],
      "name" : "Daily Mix 2",
      "owner" : {
        "display_name" : "Spotify",
        "external_urls" : {
          "spotify" : "https://open.spotify.com/user/spotify"
        },
        "href" : "https://api.spotify.com/v1/users/spotify",
        "id" : "spotify",
        "type" : "user",
        "uri" : "spotify:user:spotify"
      },
      "primary_color" : null,
      "public" : false,
      "snapshot_id" : "MTY2NDQ1OTA3OCwwMDAwMDAwMGU2MTFlMjUzMGI5NDljNTgzYTBmZGFjMDdlMmI2ODY4",
      "tracks" : {
        "href" : "https://api.spotify.com/v1/playlists/37i9dQZF1E38ykNZX6MuFG/tracks",
        "total" : 50
      },
      "type" : "playlist",
      "uri" : "spotify:playlist:37i9dQZF1E38ykNZX6MuFG"
    }, {
      "collaborative" : false,
      "description" : "Waldo's Gift, BADBADNOTGOOD, ¿Téo? and more",
      "external_urls" : {
        "spotify" : "https://open.spotify.com/playlist/37i9dQZF1E355qdlh4e3ns"
      },
      "href" : "https://api.spotify.com/v1/playlists/37i9dQZF1E355qdlh4e3ns",
      "id" : "37i9dQZF1E355qdlh4e3ns",
      "images" : [ {
        "height" : null,
        "url" : "https://dailymix-images.scdn.co/v2/img/ab6761610000e5eb9b596f20f7798a590ae2f8f6/3/en/large",
        "width" : null
      } ],
      "name" : "Daily Mix 3",
      "owner" : {
        "display_name" : "Spotify",
        "external_urls" : {
          "spotify" : "https://open.spotify.com/user/spotify"
        },
        "href" : "https://api.spotify.com/v1/users/spotify",
        "id" : "spotify",
        "type" : "user",
        "uri" : "spotify:user:spotify"
      },
      "primary_color" : null,
      "public" : false,
      "snapshot_id" : "MTY2NDQ1OTA3OCwwMDAwMDAwMDU3MTljMzlmZWQ5ZGY2ZmEzMTc1OTA1MjdlYWQwN2Uy",
      "tracks" : {
        "href" : "https://api.spotify.com/v1/playlists/37i9dQZF1E355qdlh4e3ns/tracks",
        "total" : 50
      },
      "type" : "playlist",
      "uri" : "spotify:playlist:37i9dQZF1E355qdlh4e3ns"
    }, {
      "collaborative" : false,
      "description" : "Calvin Harris, Gaullin, Khalid and more",
      "external_urls" : {
        "spotify" : "https://open.spotify.com/playlist/37i9dQZF1E35NTwhOjuYPz"
      },
      "href" : "https://api.spotify.com/v1/playlists/37i9dQZF1E35NTwhOjuYPz",
      "id" : "37i9dQZF1E35NTwhOjuYPz",
      "images" : [ {
        "height" : null,
        "url" : "https://dailymix-images.scdn.co/v2/img/ab6761610000e5eb578905d5539cff25568dc097/4/en/large",
        "width" : null
      } ],
      "name" : "Daily Mix 4",
      "owner" : {
        "display_name" : "Spotify",
        "external_urls" : {
          "spotify" : "https://open.spotify.com/user/spotify"
        },
        "href" : "https://api.spotify.com/v1/users/spotify",
        "id" : "spotify",
        "type" : "user",
        "uri" : "spotify:user:spotify"
      },
      "primary_color" : null,
      "public" : false,
      "snapshot_id" : "MTY2NDQ1OTA3OCwwMDAwMDAwMDVmZDk3YjdmY2U4NjMxMDhhODAwOTM3ZTcwMzI3YTkw",
      "tracks" : {
        "href" : "https://api.spotify.com/v1/playlists/37i9dQZF1E35NTwhOjuYPz/tracks",
        "total" : 50
      },
      "type" : "playlist",
      "uri" : "spotify:playlist:37i9dQZF1E35NTwhOjuYPz"
    }, {
      "collaborative" : false,
      "description" : "Alicia Keys, Lil Nas X, Flowervillain and more",
      "external_urls" : {
        "spotify" : "https://open.spotify.com/playlist/37i9dQZF1E3647miRiUQ2t"
      },
      "href" : "https://api.spotify.com/v1/playlists/37i9dQZF1E3647miRiUQ2t",
      "id" : "37i9dQZF1E3647miRiUQ2t",
      "images" : [ {
        "height" : null,
        "url" : "https://dailymix-images.scdn.co/v2/img/ab6761610000e5ebbf50e4c8ca06aa27f4ab0f7d/5/en/large",
        "width" : null
      } ],
      "name" : "Daily Mix 5",
      "owner" : {
        "display_name" : "Spotify",
        "external_urls" : {
          "spotify" : "https://open.spotify.com/user/spotify"
        },
        "href" : "https://api.spotify.com/v1/users/spotify",
        "id" : "spotify",
        "type" : "user",
        "uri" : "spotify:user:spotify"
      },
      "primary_color" : null,
      "public" : false,
      "snapshot_id" : "MTY2NDQ1OTA3OCwwMDAwMDAwMGI5OTRhMDY1MWJjZWQyYjc0YjQyMmU4YzNkNWQ2Y2Rl",
      "tracks" : {
        "href" : "https://api.spotify.com/v1/playlists/37i9dQZF1E3647miRiUQ2t/tracks",
        "total" : 50
      },
      "type" : "playlist",
      "uri" : "spotify:playlist:37i9dQZF1E3647miRiUQ2t"
    }, {
      "collaborative" : false,
      "description" : "Goth Babe, Everyone You Know, push baby and more",
      "external_urls" : {
        "spotify" : "https://open.spotify.com/playlist/37i9dQZF1E36QyQK50V8pd"
      },
      "href" : "https://api.spotify.com/v1/playlists/37i9dQZF1E36QyQK50V8pd",
      "id" : "37i9dQZF1E36QyQK50V8pd",
      "images" : [ {
        "height" : null,
        "url" : "https://dailymix-images.scdn.co/v2/img/ab6761610000e5eb92ba49f3331d4d700e29e08c/6/en/large",
        "width" : null
      } ],
      "name" : "Daily Mix 6",
      "owner" : {
        "display_name" : "Spotify",
        "external_urls" : {
          "spotify" : "https://open.spotify.com/user/spotify"
        },
        "href" : "https://api.spotify.com/v1/users/spotify",
        "id" : "spotify",
        "type" : "user",
        "uri" : "spotify:user:spotify"
      },
      "primary_color" : null,
      "public" : false,
      "snapshot_id" : "MTY2NDQ1OTA3OCwwMDAwMDAwMDU5N2E3M2IyNTliYzc1N2ZiNGRhYmYxNWIyY2I1NTEz",
      "tracks" : {
        "href" : "https://api.spotify.com/v1/playlists/37i9dQZF1E36QyQK50V8pd/tracks",
        "total" : 50
      },
      "type" : "playlist",
      "uri" : "spotify:playlist:37i9dQZF1E36QyQK50V8pd"
    }, {
      "collaborative" : false,
      "description" : "Your weekly mixtape of fresh music. Enjoy new music and deep cuts picked for you. Updates every Monday.",
      "external_urls" : {
        "spotify" : "https://open.spotify.com/playlist/37i9dQZEVXcC6OKKwSilg7"
      },
      "href" : "https://api.spotify.com/v1/playlists/37i9dQZEVXcC6OKKwSilg7",
      "id" : "37i9dQZEVXcC6OKKwSilg7",
      "images" : [ {
        "height" : null,
        "url" : "https://newjams-images.scdn.co/image/ab676477000033ad/dt/v3/discover-weekly/ZRYPNXwnenNBMaqTzo27B82faEi9UEDH6pHP0JohBjLGgp1QBgCZTdnSpJTDUMW7cOG5e7i20ET5AXquIRc2aftmHPhmRfhBZKGoinSYt8Y=/MjM6NDE6MTBUMzEtMDEtMg==",
        "width" : null
      } ],
      "name" : "Discover Weekly",
      "owner" : {
        "display_name" : "Spotify",
        "external_urls" : {
          "spotify" : "https://open.spotify.com/user/spotify"
        },
        "href" : "https://api.spotify.com/v1/users/spotify",
        "id" : "spotify",
        "type" : "user",
        "uri" : "spotify:user:spotify"
      },
      "primary_color" : null,
      "public" : false,
      "snapshot_id" : "MCwwMDAwMDAwMDk2NDBiM2QwMTg2ZWYxNDJjZTIzNDY1NTRhODA5MzA3",
      "tracks" : {
        "href" : "https://api.spotify.com/v1/playlists/37i9dQZEVXcC6OKKwSilg7/tracks",
        "total" : 30
      },
      "type" : "playlist",
      "uri" : "spotify:playlist:37i9dQZEVXcC6OKKwSilg7"
    }, {
      "collaborative" : false,
      "description" : "Catch all the latest music from artists you follow, plus new singles picked for you. Updates every Friday.",
      "external_urls" : {
        "spotify" : "https://open.spotify.com/playlist/37i9dQZEVXbjaW3aOKanvd"
      },
      "href" : "https://api.spotify.com/v1/playlists/37i9dQZEVXbjaW3aOKanvd",
      "id" : "37i9dQZEVXbjaW3aOKanvd",
      "images" : [ {
        "height" : null,
        "url" : "https://newjams-images.scdn.co/image/ab6764780000c480/dt/v3/release-radar/ab6761610000e5ebda4e307e350dc4c22253f994/en",
        "width" : null
      } ],
      "name" : "Release Radar",
      "owner" : {
        "display_name" : "Spotify",
        "external_urls" : {
          "spotify" : "https://open.spotify.com/user/spotify"
        },
        "href" : "https://api.spotify.com/v1/users/spotify",
        "id" : "spotify",
        "type" : "user",
        "uri" : "spotify:user:spotify"
      },
      "primary_color" : null,
      "public" : false,
      "snapshot_id" : "MCwwMDAwMDAwMDQ4YmJkMjQ4OGU4YjFmYjE3MTJiNDhmMDRkZThlNzY5",
      "tracks" : {
        "href" : "https://api.spotify.com/v1/playlists/37i9dQZEVXbjaW3aOKanvd/tracks",
        "total" : 30
      },
      "type" : "playlist",
      "uri" : "spotify:playlist:37i9dQZEVXbjaW3aOKanvd"
    }, {
      "collaborative" : false,
      "description" : "Your past favorites",
      "external_urls" : {
        "spotify" : "https://open.spotify.com/playlist/37i9dQZF1EpByCoz33i9Gi"
      },
      "href" : "https://api.spotify.com/v1/playlists/37i9dQZF1EpByCoz33i9Gi",
      "id" : "37i9dQZF1EpByCoz33i9Gi",
      "images" : [ {
        "height" : null,
        "url" : "https://daily-mix.scdn.co/covers/backtracks/PZN_Repeat_Rewind2_LARGE-en.jpg",
        "width" : null
      } ],
      "name" : "Repeat Rewind",
      "owner" : {
        "display_name" : "Spotify",
        "external_urls" : {
          "spotify" : "https://open.spotify.com/user/spotify"
        },
        "href" : "https://api.spotify.com/v1/users/spotify",
        "id" : "spotify",
        "type" : "user",
        "uri" : "spotify:user:spotify"
      },
      "primary_color" : null,
      "public" : false,
      "snapshot_id" : "MTY2NDM1NjMyOSwwMDAwMDAwMDljNGU1MWJlYzJlNWJjNzUxOGUyNTk0OGNhNmE5MzBm",
      "tracks" : {
        "href" : "https://api.spotify.com/v1/playlists/37i9dQZF1EpByCoz33i9Gi/tracks",
        "total" : 30
      },
      "type" : "playlist",
      "uri" : "spotify:playlist:37i9dQZF1EpByCoz33i9Gi"
    }, {
      "collaborative" : false,
      "description" : "Songs you love right now",
      "external_urls" : {
        "spotify" : "https://open.spotify.com/playlist/37i9dQZF1EpsVQY6LP6aLh"
      },
      "href" : "https://api.spotify.com/v1/playlists/37i9dQZF1EpsVQY6LP6aLh",
      "id" : "37i9dQZF1EpsVQY6LP6aLh",
      "images" : [ {
        "height" : null,
        "url" : "https://daily-mix.scdn.co/covers/on_repeat/PZN_On_Repeat2_LARGE-en.jpg",
        "width" : null
      } ],
      "name" : "On Repeat",
      "owner" : {
        "display_name" : "Spotify",
        "external_urls" : {
          "spotify" : "https://open.spotify.com/user/spotify"
        },
        "href" : "https://api.spotify.com/v1/users/spotify",
        "id" : "spotify",
        "type" : "user",
        "uri" : "spotify:user:spotify"
      },
      "primary_color" : null,
      "public" : false,
      "snapshot_id" : "MTY2NDM1NjMyOSwwMDAwMDAwMDljNGU1MWJlYzJlNWJjNzUxOGUyNTk0OGNhNmE5MzBm",
      "tracks" : {
        "href" : "https://api.spotify.com/v1/playlists/37i9dQZF1EpsVQY6LP6aLh/tracks",
        "total" : 30
      },
      "type" : "playlist",
      "uri" : "spotify:playlist:37i9dQZF1EpsVQY6LP6aLh"
    }, {
      "collaborative" : true,
      "description" : "Friends Playlist: all genres, new or old, anything you like",
      "external_urls" : {
        "spotify" : "https://open.spotify.com/playlist/2Hgq3fDDfP3fYFp8btVlPi"
      },
      "href" : "https://api.spotify.com/v1/playlists/2Hgq3fDDfP3fYFp8btVlPi",
      "id" : "2Hgq3fDDfP3fYFp8btVlPi",
      "images" : [ {
        "height" : null,
        "url" : "https://i.scdn.co/image/ab67706c0000bebb55d640c4329807baf8ce49d5",
        "width" : null
      } ],
      "name" : "S I L V E R ",
      "owner" : {
        "display_name" : "Noah Bram",
        "external_urls" : {
          "spotify" : "https://open.spotify.com/user/22io3oxgaphrgsxto4naqh4ai"
        },
        "href" : "https://api.spotify.com/v1/users/22io3oxgaphrgsxto4naqh4ai",
        "id" : "22io3oxgaphrgsxto4naqh4ai",
        "type" : "user",
        "uri" : "spotify:user:22io3oxgaphrgsxto4naqh4ai"
      },
      "primary_color" : null,
      "public" : true,
      "snapshot_id" : "MjI1LDIzNmQ5NmVkMDAyZTE5YTNhODgxNzA0YmQ4NjYxODA4MmJmNmZmZDY=",
      "tracks" : {
        "href" : "https://api.spotify.com/v1/playlists/2Hgq3fDDfP3fYFp8btVlPi/tracks",
        "total" : 153
      },
      "type" : "playlist",
      "uri" : "spotify:playlist:2Hgq3fDDfP3fYFp8btVlPi"
    } ],
    "limit" : 10,
    "next" : "https://api.spotify.com/v1/users/22io3oxgaphrgsxto4naqh4ai/playlists?offset=15&limit=10",
    "offset" : 5,
    "previous" : "https://api.spotify.com/v1/users/22io3oxgaphrgsxto4naqh4ai/playlists?offset=0&limit=10",
    "total" : 59
  }